Name,Userpage
Alexey Ernandes-Ortega,id197072464
Andrey Belyaev #1,belyaev_power
Andrey Malanichev,id63945952
Dmitriy Timofeev,timofeev.powerlifting
Exal García Carrillo,exal_garcia
Gunel Talybova,guneltalybova
Konstantin Morozov,hypnoticvk
Maksim Popov #1,mathperfect
Marianna Gasparyan,id230319807
Natalya Kuzmina #1,powerliftingphenom
Yury Belkin,belkin.power
Zahir Khudayarov,zahirkhudayarov
Zhavokhir Askaraliev,javohir6270
