Place,Name,Sex,Event,Division,WeightClassKg,Equipment,BirthYear,Team,State,BodyweightKg,Squat1Kg,Squat2Kg,Squat3Kg,Best3SquatKg,Bench1Kg,Bench2Kg,Bench3Kg,Best3BenchKg,Deadlift1Kg,Deadlift2Kg,Deadlift3Kg,Best3DeadliftKg,TotalKg,Age,BirthDate
1,Kathryn Cordeiro,F,SBD,FR-M,47,Raw,1962,Granite State Powerlifting Club,NH,46.24,65,72.5,80,80,55,60,-62.5,60,85,92.5,97.5,97.5,237.5,,
1,Barbara Beaudin,F,SBD,FR-M,84,Raw,1961,Granite State Powerlifting Club,NH,82.36,80,-90,-90,80,50,55,-60,55,120,130,137.5,137.5,272.5,,
1,Kathryn Cordeiro,F,SBD,FR-O,47,Raw,1962,Granite State Powerlifting Club,NH,46.24,65,72.5,80,80,55,60,-62.5,60,85,92.5,97.5,97.5,237.5,,
1,Lindsay Evans,F,SBD,FR-O,63,Raw,1988,Granite State Powerlifting Club,NH,61.62,105,-115,122.5,122.5,65,-72.5,72.5,72.5,135,140,-145,140,335,,
2,Tanya Vong,F,SBD,FR-O,63,Raw,1981,Granite State Powerlifting Club,NH,61,-110,-120,120,120,57.5,62.5,65,65,130,140,145,145,330,,
3,Pamela Trow,F,SBD,FR-O,63,Raw,1979,Granite State Powerlifting Club,NH,62.36,100,-112.5,120,120,60,65,-70,65,-102.5,102.5,-107.5,102.5,287.5,,
4,Kaitlyn Moran,F,SBD,FR-O,63,Raw,1988,Granite State Powerlifting Club,NH,61.02,87.5,95,100,100,50,52.5,-55,52.5,85,95,100,100,252.5,,
1,Casluh Chamberlain,F,SBD,FR-O,72,Raw,1989,,NH,71.18,122.5,127.5,132.5,132.5,75,80,-82.5,80,140,145,150,150,362.5,,
2,Elisabeth Wilson,F,SBD,FR-O,72,Raw,1996,Granite State Powerlifting Club,NH,71.64,-110,120,130,130,65,72.5,77.5,77.5,120,127.5,-132.5,127.5,335,,
3,Jessica Burdick,F,SBD,FR-O,72,Raw,1989,Precision Powerlifting Systems,MA,70.8,105,112.5,115,115,52.5,57.5,60,60,137.5,147.5,-157.5,147.5,322.5,,
1,Alyssa Orlando,F,SBD,FR-O,84,Raw,1992,Precision Powerlifting Systems,MA,82.22,135,145,152.5,152.5,82.5,87.5,-92.5,87.5,157.5,167.5,177.5,177.5,417.5,,
2,Jasmine Dube,F,SBD,FR-O,84,Raw,1990,Granite State Powerlifting Club,NH,73.66,135,142.5,-147.5,142.5,67.5,75,77.5,77.5,157.5,167.5,-172.5,167.5,387.5,,
3,Marilyn Moedinger,F,SBD,FR-O,84,Raw,1982,Precision Powerlifting Systems,MA,76.62,95,102.5,107.5,107.5,55,60,62.5,62.5,127.5,-137.5,137.5,137.5,307.5,,
1,Shauna Staveley,F,SBD,FR-O,84+,Raw,1985,Granite State Powerlifting Club,MA,97.32,167.5,175,-182.5,175,87.5,95,100,100,170,182.5,-190,182.5,457.5,,
2,Beverly Gentile,F,SBD,FR-O,84+,Raw,1989,Precision Powerlifting Systems,MA,98.54,85,90,95,95,40,45,47.5,47.5,105,112.5,117.5,117.5,260,,
1,Sam Duncan,M,SBD,MR-O,83,Raw,1985,,MA,77.8,157.5,167.5,-182.5,167.5,105,112.5,120,120,200,215,-227.5,215,502.5,,
1,Daniel MacCallum,M,SBD,MR-O,105,Raw,1987,Granite State Powerlifting Club,NH,102.2,125,-132.5,140,140,80,92.5,-100,92.5,170,182.5,190,190,422.5,,
1,Eric Andrews,M,SBD,MR-O,120,Raw,1991,Granite State Powerlifting Club,NH,107,220,232.5,240,240,147.5,157.5,162.5,162.5,220,232.5,237.5,237.5,640,,
1,Derek Worden,M,SBD,MR-O,120+,Raw,1986,Granite State Powerlifting Club,NH,143.3,200,215,227.5,227.5,125,135,142.5,142.5,260,272.5,280,280,650,,
